vhdl xil_defaultlib "AESL_sim_pkg.vhd"
sv work "glbl.v"
vhdl xil_defaultlib "Loop_loop_height_pro.vhd"
vhdl xil_defaultlib "fifo_w8_d2_A.vhd"
vhdl xil_defaultlib "AESL_axi_s_crop_out.vhd"
vhdl xil_defaultlib "Mat2AXIvideo.vhd"
vhdl xil_defaultlib "AESL_axi_s_image_in.vhd"
vhdl xil_defaultlib "center_image.vhd"
vhdl xil_defaultlib "AESL_axi_s_image_out.vhd"
vhdl xil_defaultlib "Mat2AXIvideo_1.vhd"
vhdl xil_defaultlib "start_for_Mat2AXIdEe.vhd"
vhdl xil_defaultlib "start_for_Loop_lobkb.vhd"
vhdl xil_defaultlib "AXIvideo2Mat.vhd"
vhdl xil_defaultlib "center_image.autotb.vhd"
vhdl xil_defaultlib "start_for_Mat2AXIcud.vhd"

