

================================================================
== Vivado HLS Report for 'float_converter'
================================================================
* Date:           Sat Dec  7 15:05:57 2019

* Version:        2018.2 (Build 2258646 on Thu Jun 14 20:25:20 MDT 2018)
* Project:        float_converter
* Solution:       solution1
* Product family: zynq
* Target device:  xc7z020clg400-1


================================================================
== Performance Estimates
================================================================
+ Timing (ns): 
    * Summary: 
    +--------+-------+----------+------------+
    |  Clock | Target| Estimated| Uncertainty|
    +--------+-------+----------+------------+
    |ap_clk  |  10.00|     8.621|        1.25|
    +--------+-------+----------+------------+

+ Latency (clock cycles): 
    * Summary: 
    +------+------+------+------+---------+
    |   Latency   |   Interval  | Pipeline|
    |  min |  max |  min |  max |   Type  |
    +------+------+------+------+---------+
    |  2019|  2019|  2019|  2019|   none  |
    +------+------+------+------+---------+

    + Detail: 
        * Instance: 
        N/A

        * Loop: 
        +-----------------------+------+------+----------+-----------+-----------+------+----------+
        |                       |   Latency   | Iteration|  Initiation Interval  | Trip |          |
        |       Loop Name       |  min |  max |  Latency |  achieved |   target  | Count| Pipelined|
        +-----------------------+------+------+----------+-----------+-----------+------+----------+
        |- loop_wait_for_start  |     0|     0|         1|          1|          1|     0|    yes   |
        |- loop_height          |  2016|  2016|        72|          -|          -|    28|    no    |
        | + loop_width          |    66|    66|        40|          1|          1|    28|    yes   |
        | + loop_wait_for_eol   |     1|     1|         2|          1|          1|     0|    yes   |
        +-----------------------+------+------+----------+-----------+-----------+------+----------+

============================================================
+ Verbose Summary: Synthesis Manager
============================================================
InlineROM: 1
ExposeGlobal: 0
============================================================
+ Verbose Summary: CDFG Model
============================================================
IsTopModel: 1
ResetActiveHigh: 1
IsCombinational: 0
IsDatapathOnly: 0
HasWiredReturn: 1
HasMFsm: 0
HasVarLatency: 1
IsPipeline: 0
IsRtlPipelined: 0
IsInstanceOverlapped: 0
IsDontTouch: 0
HasImplIP: 0
IsGatedGlobalClock: 0

+ Individual pipeline summary: 
  * Pipeline-0: initiation interval (II) = 1, depth = 1
  * Pipeline-1: initiation interval (II) = 1, depth = 40
  * Pipeline-2: initiation interval (II) = 1, depth = 2


============================================================
+ Verbose Summary: Schedule
============================================================
* Number of FSM states : 48
* Pipeline : 3
  Pipeline-0 : II = 1, D = 1, States = { 2 }
  Pipeline-1 : II = 1, D = 40, States = { 5 6 7 8 9 10 11 12 13 14 15 16 17 18 19 20 21 22 23 24 25 26 27 28 29 30 31 32 33 34 35 36 37 38 39 40 41 42 43 44 }
  Pipeline-2 : II = 1, D = 2, States = { 46 47 }
* Dataflow Pipeline: 0

* FSM state transitions: 
1 --> 
	2  / true
2 --> 
	3  / (tmp_user_V_1)
	2  / (!tmp_user_V_1)
3 --> 
	4  / true
4 --> 
	5  / (!exitcond)
5 --> 
	6  / true
6 --> 
	45  / (tmp_1)
	7  / (!tmp_1)
7 --> 
	8  / true
8 --> 
	9  / true
9 --> 
	10  / true
10 --> 
	11  / true
11 --> 
	12  / true
12 --> 
	13  / true
13 --> 
	14  / true
14 --> 
	15  / true
15 --> 
	16  / true
16 --> 
	17  / true
17 --> 
	18  / true
18 --> 
	19  / true
19 --> 
	20  / true
20 --> 
	21  / true
21 --> 
	22  / true
22 --> 
	23  / true
23 --> 
	24  / true
24 --> 
	25  / true
25 --> 
	26  / true
26 --> 
	27  / true
27 --> 
	28  / true
28 --> 
	29  / true
29 --> 
	30  / true
30 --> 
	31  / true
31 --> 
	32  / true
32 --> 
	33  / true
33 --> 
	34  / true
34 --> 
	35  / true
35 --> 
	36  / true
36 --> 
	37  / true
37 --> 
	38  / true
38 --> 
	39  / true
39 --> 
	40  / true
40 --> 
	41  / true
41 --> 
	42  / true
42 --> 
	43  / true
43 --> 
	44  / true
44 --> 
	5  / true
45 --> 
	46  / true
46 --> 
	47  / true
47 --> 
	48  / (eol_2)
	46  / (!eol_2)
48 --> 
	4  / true

* FSM state operations: 

State 1 <SV = 0> <Delay = 0.00>
ST_1 : Operation 49 [1/1] (0.00ns)   --->   "call void (...)* @_ssdm_op_SpecBitsMap(i8* %stream_in_V_data_V), !map !58"   --->   Operation 49 'specbitsmap' <Predicate = true> <Delay = 0.00>
ST_1 : Operation 50 [1/1] (0.00ns)   --->   "call void (...)* @_ssdm_op_SpecBitsMap(i1* %stream_in_V_keep_V), !map !62"   --->   Operation 50 'specbitsmap' <Predicate = true> <Delay = 0.00>
ST_1 : Operation 51 [1/1] (0.00ns)   --->   "call void (...)* @_ssdm_op_SpecBitsMap(i1* %stream_in_V_strb_V), !map !66"   --->   Operation 51 'specbitsmap' <Predicate = true> <Delay = 0.00>
ST_1 : Operation 52 [1/1] (0.00ns)   --->   "call void (...)* @_ssdm_op_SpecBitsMap(i1* %stream_in_V_user_V), !map !70"   --->   Operation 52 'specbitsmap' <Predicate = true> <Delay = 0.00>
ST_1 : Operation 53 [1/1] (0.00ns)   --->   "call void (...)* @_ssdm_op_SpecBitsMap(i1* %stream_in_V_last_V), !map !74"   --->   Operation 53 'specbitsmap' <Predicate = true> <Delay = 0.00>
ST_1 : Operation 54 [1/1] (0.00ns)   --->   "call void (...)* @_ssdm_op_SpecBitsMap(i1* %stream_in_V_id_V), !map !78"   --->   Operation 54 'specbitsmap' <Predicate = true> <Delay = 0.00>
ST_1 : Operation 55 [1/1] (0.00ns)   --->   "call void (...)* @_ssdm_op_SpecBitsMap(i1* %stream_in_V_dest_V), !map !82"   --->   Operation 55 'specbitsmap' <Predicate = true> <Delay = 0.00>
ST_1 : Operation 56 [1/1] (0.00ns)   --->   "call void (...)* @_ssdm_op_SpecBitsMap(i32* %stream_out_V_data_V), !map !86"   --->   Operation 56 'specbitsmap' <Predicate = true> <Delay = 0.00>
ST_1 : Operation 57 [1/1] (0.00ns)   --->   "call void (...)* @_ssdm_op_SpecBitsMap(i4* %stream_out_V_keep_V), !map !90"   --->   Operation 57 'specbitsmap' <Predicate = true> <Delay = 0.00>
ST_1 : Operation 58 [1/1] (0.00ns)   --->   "call void (...)* @_ssdm_op_SpecBitsMap(i4* %stream_out_V_strb_V), !map !94"   --->   Operation 58 'specbitsmap' <Predicate = true> <Delay = 0.00>
ST_1 : Operation 59 [1/1] (0.00ns)   --->   "call void (...)* @_ssdm_op_SpecBitsMap(i1* %stream_out_V_user_V), !map !98"   --->   Operation 59 'specbitsmap' <Predicate = true> <Delay = 0.00>
ST_1 : Operation 60 [1/1] (0.00ns)   --->   "call void (...)* @_ssdm_op_SpecBitsMap(i1* %stream_out_V_last_V), !map !102"   --->   Operation 60 'specbitsmap' <Predicate = true> <Delay = 0.00>
ST_1 : Operation 61 [1/1] (0.00ns)   --->   "call void (...)* @_ssdm_op_SpecBitsMap(i1* %stream_out_V_id_V), !map !106"   --->   Operation 61 'specbitsmap' <Predicate = true> <Delay = 0.00>
ST_1 : Operation 62 [1/1] (0.00ns)   --->   "call void (...)* @_ssdm_op_SpecBitsMap(i1* %stream_out_V_dest_V), !map !110"   --->   Operation 62 'specbitsmap' <Predicate = true> <Delay = 0.00>
ST_1 : Operation 63 [1/1] (0.00ns)   --->   "call void (...)* @_ssdm_op_SpecTopModule([16 x i8]* @float_converter_str) nounwind"   --->   Operation 63 'spectopmodule' <Predicate = true> <Delay = 0.00>
ST_1 : Operation 64 [1/1] (0.00ns)   --->   "call void (...)* @_ssdm_op_SpecInterface(i8* %stream_in_V_data_V, i1* %stream_in_V_keep_V, i1* %stream_in_V_strb_V, i1* %stream_in_V_user_V, i1* %stream_in_V_last_V, i1* %stream_in_V_id_V, i1* %stream_in_V_dest_V, [5 x i8]* @p_str, i32 1, i32 1, [5 x i8]* @p_str2, i32 0, i32 0, [1 x i8]* @p_str3, [1 x i8]* @p_str3, [1 x i8]* @p_str3, i32 0, i32 0, i32 0, i32 0, [1 x i8]* @p_str3, [1 x i8]* @p_str3) nounwind" [float_converter/solution1/src/float_converter.cpp:15]   --->   Operation 64 'specinterface' <Predicate = true> <Delay = 0.00>
ST_1 : Operation 65 [1/1] (0.00ns)   --->   "call void (...)* @_ssdm_op_SpecInterface(i32* %stream_out_V_data_V, i4* %stream_out_V_keep_V, i4* %stream_out_V_strb_V, i1* %stream_out_V_user_V, i1* %stream_out_V_last_V, i1* %stream_out_V_id_V, i1* %stream_out_V_dest_V, [5 x i8]* @p_str, i32 1, i32 1, [5 x i8]* @p_str2, i32 0, i32 0, [1 x i8]* @p_str3, [1 x i8]* @p_str3, [1 x i8]* @p_str3, i32 0, i32 0, i32 0, i32 0, [1 x i8]* @p_str3, [1 x i8]* @p_str3) nounwind" [float_converter/solution1/src/float_converter.cpp:16]   --->   Operation 65 'specinterface' <Predicate = true> <Delay = 0.00>
ST_1 : Operation 66 [1/1] (0.00ns)   --->   "br label %0"   --->   Operation 66 'br' <Predicate = true> <Delay = 0.00>

State 2 <SV = 1> <Delay = 0.00>
ST_2 : Operation 67 [1/1] (0.00ns)   --->   "call void (...)* @_ssdm_op_SpecLoopName([20 x i8]* @p_str4) nounwind" [float_converter/solution1/src/float_converter.cpp:42]   --->   Operation 67 'specloopname' <Predicate = true> <Delay = 0.00>
ST_2 : Operation 68 [1/1] (0.00ns)   --->   "%tmp = call i32 (...)* @_ssdm_op_SpecRegionBegin([20 x i8]* @p_str4)" [float_converter/solution1/src/float_converter.cpp:42]   --->   Operation 68 'specregionbegin' 'tmp' <Predicate = true> <Delay = 0.00>
ST_2 : Operation 69 [1/1] (0.00ns)   --->   "call void (...)* @_ssdm_op_SpecPipeline(i32 1, i32 1, i32 1, i32 0, [1 x i8]* @p_str3) nounwind" [float_converter/solution1/src/float_converter.cpp:43]   --->   Operation 69 'specpipeline' <Predicate = true> <Delay = 0.00>
ST_2 : Operation 70 [1/1] (0.00ns)   --->   "call void (...)* @_ssdm_op_SpecLoopTripCount(i32 0, i32 0, i32 0, [1 x i8]* @p_str3) nounwind" [float_converter/solution1/src/float_converter.cpp:44]   --->   Operation 70 'speclooptripcount' <Predicate = true> <Delay = 0.00>
ST_2 : Operation 71 [1/1] (0.00ns)   --->   "%empty = call { i8, i1, i1, i1, i1, i1, i1 } @_ssdm_op_Read.axis.volatile.i8P.i1P.i1P.i1P.i1P.i1P.i1P(i8* %stream_in_V_data_V, i1* %stream_in_V_keep_V, i1* %stream_in_V_strb_V, i1* %stream_in_V_user_V, i1* %stream_in_V_last_V, i1* %stream_in_V_id_V, i1* %stream_in_V_dest_V)" [float_converter/solution1/src/float_converter.cpp:45]   --->   Operation 71 'read' 'empty' <Predicate = true> <Delay = 0.00> <Core = "AXI4Stream">   --->   Core 5 'AXI4Stream' <Latency = 0> <II = 1> <Delay = 1.00> <Adapter> <Opcode : >
ST_2 : Operation 72 [1/1] (0.00ns)   --->   "%tmp_data_V_1 = extractvalue { i8, i1, i1, i1, i1, i1, i1 } %empty, 0" [float_converter/solution1/src/float_converter.cpp:45]   --->   Operation 72 'extractvalue' 'tmp_data_V_1' <Predicate = true> <Delay = 0.00>
ST_2 : Operation 73 [1/1] (0.00ns)   --->   "%tmp_keep_V_1 = extractvalue { i8, i1, i1, i1, i1, i1, i1 } %empty, 1" [float_converter/solution1/src/float_converter.cpp:45]   --->   Operation 73 'extractvalue' 'tmp_keep_V_1' <Predicate = true> <Delay = 0.00>
ST_2 : Operation 74 [1/1] (0.00ns)   --->   "%tmp_strb_V_1 = extractvalue { i8, i1, i1, i1, i1, i1, i1 } %empty, 2" [float_converter/solution1/src/float_converter.cpp:45]   --->   Operation 74 'extractvalue' 'tmp_strb_V_1' <Predicate = true> <Delay = 0.00>
ST_2 : Operation 75 [1/1] (0.00ns)   --->   "%tmp_user_V_1 = extractvalue { i8, i1, i1, i1, i1, i1, i1 } %empty, 3" [float_converter/solution1/src/float_converter.cpp:45]   --->   Operation 75 'extractvalue' 'tmp_user_V_1' <Predicate = true> <Delay = 0.00>
ST_2 : Operation 76 [1/1] (0.00ns)   --->   "%tmp_last_V_1 = extractvalue { i8, i1, i1, i1, i1, i1, i1 } %empty, 4" [float_converter/solution1/src/float_converter.cpp:45]   --->   Operation 76 'extractvalue' 'tmp_last_V_1' <Predicate = true> <Delay = 0.00>
ST_2 : Operation 77 [1/1] (0.00ns)   --->   "%tmp_id_V_1 = extractvalue { i8, i1, i1, i1, i1, i1, i1 } %empty, 5" [float_converter/solution1/src/float_converter.cpp:45]   --->   Operation 77 'extractvalue' 'tmp_id_V_1' <Predicate = true> <Delay = 0.00>
ST_2 : Operation 78 [1/1] (0.00ns)   --->   "%tmp_dest_V_1 = extractvalue { i8, i1, i1, i1, i1, i1, i1 } %empty, 6" [float_converter/solution1/src/float_converter.cpp:45]   --->   Operation 78 'extractvalue' 'tmp_dest_V_1' <Predicate = true> <Delay = 0.00>
ST_2 : Operation 79 [1/1] (0.00ns)   --->   "%empty_2 = call i32 (...)* @_ssdm_op_SpecRegionEnd([20 x i8]* @p_str4, i32 %tmp)" [float_converter/solution1/src/float_converter.cpp:47]   --->   Operation 79 'specregionend' 'empty_2' <Predicate = true> <Delay = 0.00>
ST_2 : Operation 80 [1/1] (0.00ns)   --->   "br i1 %tmp_user_V_1, label %.preheader118.preheader, label %0" [float_converter/solution1/src/float_converter.cpp:42]   --->   Operation 80 'br' <Predicate = true> <Delay = 0.00>

State 3 <SV = 2> <Delay = 1.76>
ST_3 : Operation 81 [1/1] (0.00ns)   --->   "%sof_1 = alloca i1"   --->   Operation 81 'alloca' 'sof_1' <Predicate = true> <Delay = 0.00>
ST_3 : Operation 82 [1/1] (1.76ns)   --->   "store i1 true, i1* %sof_1"   --->   Operation 82 'store' <Predicate = true> <Delay = 1.76>
ST_3 : Operation 83 [1/1] (1.76ns)   --->   "br label %.preheader118" [float_converter/solution1/src/float_converter.cpp:48]   --->   Operation 83 'br' <Predicate = true> <Delay = 1.76>

State 4 <SV = 3> <Delay = 2.34>
ST_4 : Operation 84 [1/1] (0.00ns)   --->   "%udata_dest_V1 = phi i1 [ %udata_dest_V_3, %7 ], [ %tmp_dest_V_1, %.preheader118.preheader ]"   --->   Operation 84 'phi' 'udata_dest_V1' <Predicate = true> <Delay = 0.00>
ST_4 : Operation 85 [1/1] (0.00ns)   --->   "%udata_id_V1 = phi i1 [ %udata_id_V_3, %7 ], [ %tmp_id_V_1, %.preheader118.preheader ]"   --->   Operation 85 'phi' 'udata_id_V1' <Predicate = true> <Delay = 0.00>
ST_4 : Operation 86 [1/1] (0.00ns)   --->   "%udata_last_V1 = phi i1 [ %udata_last_V_3, %7 ], [ %tmp_last_V_1, %.preheader118.preheader ]"   --->   Operation 86 'phi' 'udata_last_V1' <Predicate = true> <Delay = 0.00>
ST_4 : Operation 87 [1/1] (0.00ns)   --->   "%udata_strb_V1 = phi i1 [ %udata_strb_V_3, %7 ], [ %tmp_strb_V_1, %.preheader118.preheader ]"   --->   Operation 87 'phi' 'udata_strb_V1' <Predicate = true> <Delay = 0.00>
ST_4 : Operation 88 [1/1] (0.00ns)   --->   "%udata_keep_V1 = phi i1 [ %udata_keep_V_3, %7 ], [ %tmp_keep_V_1, %.preheader118.preheader ]"   --->   Operation 88 'phi' 'udata_keep_V1' <Predicate = true> <Delay = 0.00>
ST_4 : Operation 89 [1/1] (0.00ns)   --->   "%udata_data_V1 = phi i8 [ %udata_data_V_3, %7 ], [ %tmp_data_V_1, %.preheader118.preheader ]"   --->   Operation 89 'phi' 'udata_data_V1' <Predicate = true> <Delay = 0.00>
ST_4 : Operation 90 [1/1] (0.00ns)   --->   "%udata_3 = phi i1 [ %udata_3_3, %7 ], [ true, %.preheader118.preheader ]" [float_converter/solution1/src/float_converter.cpp:80]   --->   Operation 90 'phi' 'udata_3' <Predicate = true> <Delay = 0.00>
ST_4 : Operation 91 [1/1] (0.00ns)   --->   "%t_V = phi i5 [ %i_V, %7 ], [ 0, %.preheader118.preheader ]"   --->   Operation 91 'phi' 't_V' <Predicate = true> <Delay = 0.00>
ST_4 : Operation 92 [1/1] (1.36ns)   --->   "%exitcond = icmp eq i5 %t_V, -4" [float_converter/solution1/src/float_converter.cpp:48]   --->   Operation 92 'icmp' 'exitcond' <Predicate = true> <Delay = 1.36> <Core = "Cmp">   --->   Core 25 'Cmp' <Latency = 0> <II = 1> <Delay = 1.36> <FuncUnit> <Opcode : 'icmp'> <InPorts = 2> <OutPorts = 1>
ST_4 : Operation 93 [1/1] (0.00ns)   --->   "call void (...)* @_ssdm_op_SpecLoopTripCount(i64 28, i64 28, i64 28)"   --->   Operation 93 'speclooptripcount' <Predicate = true> <Delay = 0.00>
ST_4 : Operation 94 [1/1] (1.78ns)   --->   "%i_V = add i5 %t_V, 1" [float_converter/solution1/src/float_converter.cpp:48]   --->   Operation 94 'add' 'i_V' <Predicate = true> <Delay = 1.78> <Core = "AddSub">   --->   Core 14 'AddSub' <Latency = 0> <II = 1> <Delay = 1.78> <FuncUnit> <Opcode : 'add' 'sub'> <InPorts = 2> <OutPorts = 1>
ST_4 : Operation 95 [1/1] (0.00ns)   --->   "br i1 %exitcond, label %8, label %1" [float_converter/solution1/src/float_converter.cpp:48]   --->   Operation 95 'br' <Predicate = true> <Delay = 0.00>
ST_4 : Operation 96 [1/1] (0.00ns)   --->   "call void (...)* @_ssdm_op_SpecLoopName([12 x i8]* @p_str5) nounwind" [float_converter/solution1/src/float_converter.cpp:48]   --->   Operation 96 'specloopname' <Predicate = (!exitcond)> <Delay = 0.00>
ST_4 : Operation 97 [1/1] (0.00ns)   --->   "%tmp_2 = call i32 (...)* @_ssdm_op_SpecRegionBegin([12 x i8]* @p_str5)" [float_converter/solution1/src/float_converter.cpp:48]   --->   Operation 97 'specregionbegin' 'tmp_2' <Predicate = (!exitcond)> <Delay = 0.00>
ST_4 : Operation 98 [1/1] (1.76ns)   --->   "br label %2" [float_converter/solution1/src/float_converter.cpp:51]   --->   Operation 98 'br' <Predicate = (!exitcond)> <Delay = 1.76>
ST_4 : Operation 99 [1/1] (0.00ns)   --->   "ret void" [float_converter/solution1/src/float_converter.cpp:85]   --->   Operation 99 'ret' <Predicate = (exitcond)> <Delay = 0.00>

State 5 <SV = 4> <Delay = 2.34>
ST_5 : Operation 100 [1/1] (0.00ns)   --->   "%t_V_1 = phi i5 [ 0, %1 ], [ %j_V, %5 ]"   --->   Operation 100 'phi' 't_V_1' <Predicate = true> <Delay = 0.00>
ST_5 : Operation 101 [1/1] (0.00ns)   --->   "%eol = phi i1 [ false, %1 ], [ %fdata_last_V, %5 ]"   --->   Operation 101 'phi' 'eol' <Predicate = true> <Delay = 0.00>
ST_5 : Operation 102 [1/1] (1.36ns)   --->   "%tmp_1 = icmp eq i5 %t_V_1, -4" [float_converter/solution1/src/float_converter.cpp:51]   --->   Operation 102 'icmp' 'tmp_1' <Predicate = true> <Delay = 1.36> <Core = "Cmp">   --->   Core 25 'Cmp' <Latency = 0> <II = 1> <Delay = 1.36> <FuncUnit> <Opcode : 'icmp'> <InPorts = 2> <OutPorts = 1>
ST_5 : Operation 103 [1/1] (1.78ns)   --->   "%j_V = add i5 %t_V_1, 1" [float_converter/solution1/src/float_converter.cpp:51]   --->   Operation 103 'add' 'j_V' <Predicate = true> <Delay = 1.78> <Core = "AddSub">   --->   Core 14 'AddSub' <Latency = 0> <II = 1> <Delay = 1.78> <FuncUnit> <Opcode : 'add' 'sub'> <InPorts = 2> <OutPorts = 1>
ST_5 : Operation 104 [1/1] (0.00ns)   --->   "%sof_1_load = load i1* %sof_1" [float_converter/solution1/src/float_converter.cpp:54]   --->   Operation 104 'load' 'sof_1_load' <Predicate = (!tmp_1)> <Delay = 0.00>
ST_5 : Operation 105 [1/1] (0.97ns)   --->   "%brmerge = or i1 %sof_1_load, %eol" [float_converter/solution1/src/float_converter.cpp:54]   --->   Operation 105 'or' 'brmerge' <Predicate = (!tmp_1)> <Delay = 0.97> <Core = "LogicGate">   --->   Core 27 'LogicGate' <Latency = 0> <II = 1> <Delay = 0.97> <FuncUnit> <Opcode : 'and' 'or' 'xor'> <InPorts = 2> <OutPorts = 1>
ST_5 : Operation 106 [2/2] (0.00ns)   --->   "%empty_3 = call { i8, i1, i1, i1, i1, i1, i1 } @_ssdm_op_Read.axis.volatile.i8P.i1P.i1P.i1P.i1P.i1P.i1P(i8* %stream_in_V_data_V, i1* %stream_in_V_keep_V, i1* %stream_in_V_strb_V, i1* %stream_in_V_user_V, i1* %stream_in_V_last_V, i1* %stream_in_V_id_V, i1* %stream_in_V_dest_V)" [float_converter/solution1/src/float_converter.cpp:59]   --->   Operation 106 'read' 'empty_3' <Predicate = (!tmp_1 & !brmerge)> <Delay = 0.00> <Core = "AXI4Stream">   --->   Core 5 'AXI4Stream' <Latency = 0> <II = 1> <Delay = 1.00> <Adapter> <Opcode : >
ST_5 : Operation 107 [1/1] (1.76ns)   --->   "store i1 false, i1* %sof_1"   --->   Operation 107 'store' <Predicate = (!tmp_1)> <Delay = 1.76>

State 6 <SV = 5> <Delay = 8.05>
ST_6 : Operation 108 [1/1] (0.00ns)   --->   "%udata_dest_V_1 = phi i1 [ %udata_dest_V1, %1 ], [ %fdata_dest_V, %5 ]"   --->   Operation 108 'phi' 'udata_dest_V_1' <Predicate = true> <Delay = 0.00>
ST_6 : Operation 109 [1/1] (0.00ns)   --->   "%udata_id_V_1 = phi i1 [ %udata_id_V1, %1 ], [ %fdata_id_V, %5 ]"   --->   Operation 109 'phi' 'udata_id_V_1' <Predicate = true> <Delay = 0.00>
ST_6 : Operation 110 [1/1] (0.00ns)   --->   "%eol_1 = phi i1 [ %udata_last_V1, %1 ], [ %fdata_last_V, %5 ]"   --->   Operation 110 'phi' 'eol_1' <Predicate = true> <Delay = 0.00>
ST_6 : Operation 111 [1/1] (0.00ns)   --->   "%udata_strb_V_1 = phi i1 [ %udata_strb_V1, %1 ], [ %udata_strb_V_2, %5 ]" [float_converter/solution1/src/float_converter.cpp:80]   --->   Operation 111 'phi' 'udata_strb_V_1' <Predicate = true> <Delay = 0.00>
ST_6 : Operation 112 [1/1] (0.00ns)   --->   "%udata_keep_V_1 = phi i1 [ %udata_keep_V1, %1 ], [ %udata_keep_V_2, %5 ]" [float_converter/solution1/src/float_converter.cpp:80]   --->   Operation 112 'phi' 'udata_keep_V_1' <Predicate = true> <Delay = 0.00>
ST_6 : Operation 113 [1/1] (0.00ns)   --->   "%udata_data_V_1 = phi i8 [ %udata_data_V1, %1 ], [ %udata_data_V_2, %5 ]" [float_converter/solution1/src/float_converter.cpp:80]   --->   Operation 113 'phi' 'udata_data_V_1' <Predicate = true> <Delay = 0.00>
ST_6 : Operation 114 [1/1] (0.00ns)   --->   "%udata_3_1 = phi i1 [ %udata_3, %1 ], [ %fdata_user_V, %5 ]"   --->   Operation 114 'phi' 'udata_3_1' <Predicate = true> <Delay = 0.00>
ST_6 : Operation 115 [1/1] (0.00ns)   --->   "call void (...)* @_ssdm_op_SpecLoopTripCount(i64 28, i64 28, i64 28)"   --->   Operation 115 'speclooptripcount' <Predicate = true> <Delay = 0.00>
ST_6 : Operation 116 [1/1] (0.00ns)   --->   "br i1 %tmp_1, label %.preheader.preheader, label %3" [float_converter/solution1/src/float_converter.cpp:51]   --->   Operation 116 'br' <Predicate = true> <Delay = 0.00>
ST_6 : Operation 117 [1/1] (1.76ns)   --->   "br i1 %brmerge, label %5, label %4" [float_converter/solution1/src/float_converter.cpp:54]   --->   Operation 117 'br' <Predicate = (!tmp_1)> <Delay = 1.76>
ST_6 : Operation 118 [1/2] (0.00ns)   --->   "%empty_3 = call { i8, i1, i1, i1, i1, i1, i1 } @_ssdm_op_Read.axis.volatile.i8P.i1P.i1P.i1P.i1P.i1P.i1P(i8* %stream_in_V_data_V, i1* %stream_in_V_keep_V, i1* %stream_in_V_strb_V, i1* %stream_in_V_user_V, i1* %stream_in_V_last_V, i1* %stream_in_V_id_V, i1* %stream_in_V_dest_V)" [float_converter/solution1/src/float_converter.cpp:59]   --->   Operation 118 'read' 'empty_3' <Predicate = (!tmp_1 & !brmerge)> <Delay = 0.00> <Core = "AXI4Stream">   --->   Core 5 'AXI4Stream' <Latency = 0> <II = 1> <Delay = 1.00> <Adapter> <Opcode : >
ST_6 : Operation 119 [1/1] (0.00ns)   --->   "%tmp_data_V_2 = extractvalue { i8, i1, i1, i1, i1, i1, i1 } %empty_3, 0" [float_converter/solution1/src/float_converter.cpp:59]   --->   Operation 119 'extractvalue' 'tmp_data_V_2' <Predicate = (!tmp_1 & !brmerge)> <Delay = 0.00>
ST_6 : Operation 120 [1/1] (0.00ns)   --->   "%tmp_keep_V_2 = extractvalue { i8, i1, i1, i1, i1, i1, i1 } %empty_3, 1" [float_converter/solution1/src/float_converter.cpp:59]   --->   Operation 120 'extractvalue' 'tmp_keep_V_2' <Predicate = (!tmp_1 & !brmerge)> <Delay = 0.00>
ST_6 : Operation 121 [1/1] (0.00ns)   --->   "%tmp_strb_V_2 = extractvalue { i8, i1, i1, i1, i1, i1, i1 } %empty_3, 2" [float_converter/solution1/src/float_converter.cpp:59]   --->   Operation 121 'extractvalue' 'tmp_strb_V_2' <Predicate = (!tmp_1 & !brmerge)> <Delay = 0.00>
ST_6 : Operation 122 [1/1] (0.00ns)   --->   "%tmp_user_V_2 = extractvalue { i8, i1, i1, i1, i1, i1, i1 } %empty_3, 3" [float_converter/solution1/src/float_converter.cpp:59]   --->   Operation 122 'extractvalue' 'tmp_user_V_2' <Predicate = (!tmp_1 & !brmerge)> <Delay = 0.00>
ST_6 : Operation 123 [1/1] (0.00ns)   --->   "%tmp_last_V_2 = extractvalue { i8, i1, i1, i1, i1, i1, i1 } %empty_3, 4" [float_converter/solution1/src/float_converter.cpp:59]   --->   Operation 123 'extractvalue' 'tmp_last_V_2' <Predicate = (!tmp_1 & !brmerge)> <Delay = 0.00>
ST_6 : Operation 124 [1/1] (0.00ns)   --->   "%tmp_id_V_2 = extractvalue { i8, i1, i1, i1, i1, i1, i1 } %empty_3, 5" [float_converter/solution1/src/float_converter.cpp:59]   --->   Operation 124 'extractvalue' 'tmp_id_V_2' <Predicate = (!tmp_1 & !brmerge)> <Delay = 0.00>
ST_6 : Operation 125 [1/1] (0.00ns)   --->   "%tmp_dest_V_2 = extractvalue { i8, i1, i1, i1, i1, i1, i1 } %empty_3, 6" [float_converter/solution1/src/float_converter.cpp:59]   --->   Operation 125 'extractvalue' 'tmp_dest_V_2' <Predicate = (!tmp_1 & !brmerge)> <Delay = 0.00>
ST_6 : Operation 126 [1/1] (1.76ns)   --->   "br label %5"   --->   Operation 126 'br' <Predicate = (!tmp_1 & !brmerge)> <Delay = 1.76>
ST_6 : Operation 127 [1/1] (0.00ns)   --->   "%fdata_dest_V = phi i1 [ %tmp_dest_V_2, %4 ], [ %udata_dest_V_1, %3 ]"   --->   Operation 127 'phi' 'fdata_dest_V' <Predicate = (!tmp_1)> <Delay = 0.00>
ST_6 : Operation 128 [1/1] (0.00ns)   --->   "%fdata_id_V = phi i1 [ %tmp_id_V_2, %4 ], [ %udata_id_V_1, %3 ]"   --->   Operation 128 'phi' 'fdata_id_V' <Predicate = (!tmp_1)> <Delay = 0.00>
ST_6 : Operation 129 [1/1] (0.00ns)   --->   "%fdata_last_V = phi i1 [ %tmp_last_V_2, %4 ], [ %eol_1, %3 ]"   --->   Operation 129 'phi' 'fdata_last_V' <Predicate = (!tmp_1)> <Delay = 0.00>
ST_6 : Operation 130 [1/1] (0.00ns)   --->   "%udata_strb_V_2 = phi i1 [ %tmp_strb_V_2, %4 ], [ %udata_strb_V_1, %3 ]"   --->   Operation 130 'phi' 'udata_strb_V_2' <Predicate = (!tmp_1)> <Delay = 0.00>
ST_6 : Operation 131 [1/1] (0.00ns)   --->   "%udata_keep_V_2 = phi i1 [ %tmp_keep_V_2, %4 ], [ %udata_keep_V_1, %3 ]"   --->   Operation 131 'phi' 'udata_keep_V_2' <Predicate = (!tmp_1)> <Delay = 0.00>
ST_6 : Operation 132 [1/1] (0.00ns)   --->   "%udata_data_V_2 = phi i8 [ %tmp_data_V_2, %4 ], [ %udata_data_V_1, %3 ]"   --->   Operation 132 'phi' 'udata_data_V_2' <Predicate = (!tmp_1)> <Delay = 0.00>
ST_6 : Operation 133 [1/1] (0.00ns)   --->   "%fdata_user_V = phi i1 [ %tmp_user_V_2, %4 ], [ %udata_3_1, %3 ]"   --->   Operation 133 'phi' 'fdata_user_V' <Predicate = (!tmp_1)> <Delay = 0.00>
ST_6 : Operation 134 [1/1] (0.00ns)   --->   "%tmp_s = zext i8 %udata_data_V_2 to i32" [float_converter/solution1/src/float_converter.cpp:63]   --->   Operation 134 'zext' 'tmp_s' <Predicate = (!tmp_1)> <Delay = 0.00>
ST_6 : Operation 135 [6/6] (6.28ns)   --->   "%tmp_5 = uitofp i32 %tmp_s to double" [float_converter/solution1/src/float_converter.cpp:63]   --->   Operation 135 'uitodp' 'tmp_5' <Predicate = (!tmp_1)> <Delay = 6.28> <Core = "Int2Double">   --->   Core 116 'Int2Double' <Latency = 5> <II = 1> <Delay = 6.28> <FuncUnit> <Opcode : 'sitodp' 'uitodp'> <InPorts = 1> <OutPorts = 1>

State 7 <SV = 6> <Delay = 6.28>
ST_7 : Operation 136 [5/6] (6.28ns)   --->   "%tmp_5 = uitofp i32 %tmp_s to double" [float_converter/solution1/src/float_converter.cpp:63]   --->   Operation 136 'uitodp' 'tmp_5' <Predicate = (!tmp_1)> <Delay = 6.28> <Core = "Int2Double">   --->   Core 116 'Int2Double' <Latency = 5> <II = 1> <Delay = 6.28> <FuncUnit> <Opcode : 'sitodp' 'uitodp'> <InPorts = 1> <OutPorts = 1>

State 8 <SV = 7> <Delay = 6.28>
ST_8 : Operation 137 [4/6] (6.28ns)   --->   "%tmp_5 = uitofp i32 %tmp_s to double" [float_converter/solution1/src/float_converter.cpp:63]   --->   Operation 137 'uitodp' 'tmp_5' <Predicate = (!tmp_1)> <Delay = 6.28> <Core = "Int2Double">   --->   Core 116 'Int2Double' <Latency = 5> <II = 1> <Delay = 6.28> <FuncUnit> <Opcode : 'sitodp' 'uitodp'> <InPorts = 1> <OutPorts = 1>

State 9 <SV = 8> <Delay = 6.28>
ST_9 : Operation 138 [3/6] (6.28ns)   --->   "%tmp_5 = uitofp i32 %tmp_s to double" [float_converter/solution1/src/float_converter.cpp:63]   --->   Operation 138 'uitodp' 'tmp_5' <Predicate = (!tmp_1)> <Delay = 6.28> <Core = "Int2Double">   --->   Core 116 'Int2Double' <Latency = 5> <II = 1> <Delay = 6.28> <FuncUnit> <Opcode : 'sitodp' 'uitodp'> <InPorts = 1> <OutPorts = 1>

State 10 <SV = 9> <Delay = 6.28>
ST_10 : Operation 139 [2/6] (6.28ns)   --->   "%tmp_5 = uitofp i32 %tmp_s to double" [float_converter/solution1/src/float_converter.cpp:63]   --->   Operation 139 'uitodp' 'tmp_5' <Predicate = (!tmp_1)> <Delay = 6.28> <Core = "Int2Double">   --->   Core 116 'Int2Double' <Latency = 5> <II = 1> <Delay = 6.28> <FuncUnit> <Opcode : 'sitodp' 'uitodp'> <InPorts = 1> <OutPorts = 1>

State 11 <SV = 10> <Delay = 6.28>
ST_11 : Operation 140 [1/6] (6.28ns)   --->   "%tmp_5 = uitofp i32 %tmp_s to double" [float_converter/solution1/src/float_converter.cpp:63]   --->   Operation 140 'uitodp' 'tmp_5' <Predicate = (!tmp_1)> <Delay = 6.28> <Core = "Int2Double">   --->   Core 116 'Int2Double' <Latency = 5> <II = 1> <Delay = 6.28> <FuncUnit> <Opcode : 'sitodp' 'uitodp'> <InPorts = 1> <OutPorts = 1>

State 12 <SV = 11> <Delay = 8.62>
ST_12 : Operation 141 [31/31] (8.62ns)   --->   "%tmp_6 = fdiv double %tmp_5, 2.550000e+02" [float_converter/solution1/src/float_converter.cpp:63]   --->   Operation 141 'ddiv' 'tmp_6' <Predicate = (!tmp_1)> <Delay = 8.62> <Core = "DDiv">   --->   Core 111 'DDiv' <Latency = 30> <II = 1> <Delay = 8.62> <FuncUnit> <Opcode : 'ddiv' 'drem'> <InPorts = 2> <OutPorts = 1>

State 13 <SV = 12> <Delay = 8.62>
ST_13 : Operation 142 [30/31] (8.62ns)   --->   "%tmp_6 = fdiv double %tmp_5, 2.550000e+02" [float_converter/solution1/src/float_converter.cpp:63]   --->   Operation 142 'ddiv' 'tmp_6' <Predicate = (!tmp_1)> <Delay = 8.62> <Core = "DDiv">   --->   Core 111 'DDiv' <Latency = 30> <II = 1> <Delay = 8.62> <FuncUnit> <Opcode : 'ddiv' 'drem'> <InPorts = 2> <OutPorts = 1>

State 14 <SV = 13> <Delay = 8.62>
ST_14 : Operation 143 [29/31] (8.62ns)   --->   "%tmp_6 = fdiv double %tmp_5, 2.550000e+02" [float_converter/solution1/src/float_converter.cpp:63]   --->   Operation 143 'ddiv' 'tmp_6' <Predicate = (!tmp_1)> <Delay = 8.62> <Core = "DDiv">   --->   Core 111 'DDiv' <Latency = 30> <II = 1> <Delay = 8.62> <FuncUnit> <Opcode : 'ddiv' 'drem'> <InPorts = 2> <OutPorts = 1>

State 15 <SV = 14> <Delay = 8.62>
ST_15 : Operation 144 [28/31] (8.62ns)   --->   "%tmp_6 = fdiv double %tmp_5, 2.550000e+02" [float_converter/solution1/src/float_converter.cpp:63]   --->   Operation 144 'ddiv' 'tmp_6' <Predicate = (!tmp_1)> <Delay = 8.62> <Core = "DDiv">   --->   Core 111 'DDiv' <Latency = 30> <II = 1> <Delay = 8.62> <FuncUnit> <Opcode : 'ddiv' 'drem'> <InPorts = 2> <OutPorts = 1>

State 16 <SV = 15> <Delay = 8.62>
ST_16 : Operation 145 [27/31] (8.62ns)   --->   "%tmp_6 = fdiv double %tmp_5, 2.550000e+02" [float_converter/solution1/src/float_converter.cpp:63]   --->   Operation 145 'ddiv' 'tmp_6' <Predicate = (!tmp_1)> <Delay = 8.62> <Core = "DDiv">   --->   Core 111 'DDiv' <Latency = 30> <II = 1> <Delay = 8.62> <FuncUnit> <Opcode : 'ddiv' 'drem'> <InPorts = 2> <OutPorts = 1>

State 17 <SV = 16> <Delay = 8.62>
ST_17 : Operation 146 [26/31] (8.62ns)   --->   "%tmp_6 = fdiv double %tmp_5, 2.550000e+02" [float_converter/solution1/src/float_converter.cpp:63]   --->   Operation 146 'ddiv' 'tmp_6' <Predicate = (!tmp_1)> <Delay = 8.62> <Core = "DDiv">   --->   Core 111 'DDiv' <Latency = 30> <II = 1> <Delay = 8.62> <FuncUnit> <Opcode : 'ddiv' 'drem'> <InPorts = 2> <OutPorts = 1>

State 18 <SV = 17> <Delay = 8.62>
ST_18 : Operation 147 [25/31] (8.62ns)   --->   "%tmp_6 = fdiv double %tmp_5, 2.550000e+02" [float_converter/solution1/src/float_converter.cpp:63]   --->   Operation 147 'ddiv' 'tmp_6' <Predicate = (!tmp_1)> <Delay = 8.62> <Core = "DDiv">   --->   Core 111 'DDiv' <Latency = 30> <II = 1> <Delay = 8.62> <FuncUnit> <Opcode : 'ddiv' 'drem'> <InPorts = 2> <OutPorts = 1>

State 19 <SV = 18> <Delay = 8.62>
ST_19 : Operation 148 [24/31] (8.62ns)   --->   "%tmp_6 = fdiv double %tmp_5, 2.550000e+02" [float_converter/solution1/src/float_converter.cpp:63]   --->   Operation 148 'ddiv' 'tmp_6' <Predicate = (!tmp_1)> <Delay = 8.62> <Core = "DDiv">   --->   Core 111 'DDiv' <Latency = 30> <II = 1> <Delay = 8.62> <FuncUnit> <Opcode : 'ddiv' 'drem'> <InPorts = 2> <OutPorts = 1>

State 20 <SV = 19> <Delay = 8.62>
ST_20 : Operation 149 [23/31] (8.62ns)   --->   "%tmp_6 = fdiv double %tmp_5, 2.550000e+02" [float_converter/solution1/src/float_converter.cpp:63]   --->   Operation 149 'ddiv' 'tmp_6' <Predicate = (!tmp_1)> <Delay = 8.62> <Core = "DDiv">   --->   Core 111 'DDiv' <Latency = 30> <II = 1> <Delay = 8.62> <FuncUnit> <Opcode : 'ddiv' 'drem'> <InPorts = 2> <OutPorts = 1>

State 21 <SV = 20> <Delay = 8.62>
ST_21 : Operation 150 [22/31] (8.62ns)   --->   "%tmp_6 = fdiv double %tmp_5, 2.550000e+02" [float_converter/solution1/src/float_converter.cpp:63]   --->   Operation 150 'ddiv' 'tmp_6' <Predicate = (!tmp_1)> <Delay = 8.62> <Core = "DDiv">   --->   Core 111 'DDiv' <Latency = 30> <II = 1> <Delay = 8.62> <FuncUnit> <Opcode : 'ddiv' 'drem'> <InPorts = 2> <OutPorts = 1>

State 22 <SV = 21> <Delay = 8.62>
ST_22 : Operation 151 [21/31] (8.62ns)   --->   "%tmp_6 = fdiv double %tmp_5, 2.550000e+02" [float_converter/solution1/src/float_converter.cpp:63]   --->   Operation 151 'ddiv' 'tmp_6' <Predicate = (!tmp_1)> <Delay = 8.62> <Core = "DDiv">   --->   Core 111 'DDiv' <Latency = 30> <II = 1> <Delay = 8.62> <FuncUnit> <Opcode : 'ddiv' 'drem'> <InPorts = 2> <OutPorts = 1>

State 23 <SV = 22> <Delay = 8.62>
ST_23 : Operation 152 [20/31] (8.62ns)   --->   "%tmp_6 = fdiv double %tmp_5, 2.550000e+02" [float_converter/solution1/src/float_converter.cpp:63]   --->   Operation 152 'ddiv' 'tmp_6' <Predicate = (!tmp_1)> <Delay = 8.62> <Core = "DDiv">   --->   Core 111 'DDiv' <Latency = 30> <II = 1> <Delay = 8.62> <FuncUnit> <Opcode : 'ddiv' 'drem'> <InPorts = 2> <OutPorts = 1>

State 24 <SV = 23> <Delay = 8.62>
ST_24 : Operation 153 [19/31] (8.62ns)   --->   "%tmp_6 = fdiv double %tmp_5, 2.550000e+02" [float_converter/solution1/src/float_converter.cpp:63]   --->   Operation 153 'ddiv' 'tmp_6' <Predicate = (!tmp_1)> <Delay = 8.62> <Core = "DDiv">   --->   Core 111 'DDiv' <Latency = 30> <II = 1> <Delay = 8.62> <FuncUnit> <Opcode : 'ddiv' 'drem'> <InPorts = 2> <OutPorts = 1>

State 25 <SV = 24> <Delay = 8.62>
ST_25 : Operation 154 [18/31] (8.62ns)   --->   "%tmp_6 = fdiv double %tmp_5, 2.550000e+02" [float_converter/solution1/src/float_converter.cpp:63]   --->   Operation 154 'ddiv' 'tmp_6' <Predicate = (!tmp_1)> <Delay = 8.62> <Core = "DDiv">   --->   Core 111 'DDiv' <Latency = 30> <II = 1> <Delay = 8.62> <FuncUnit> <Opcode : 'ddiv' 'drem'> <InPorts = 2> <OutPorts = 1>

State 26 <SV = 25> <Delay = 8.62>
ST_26 : Operation 155 [17/31] (8.62ns)   --->   "%tmp_6 = fdiv double %tmp_5, 2.550000e+02" [float_converter/solution1/src/float_converter.cpp:63]   --->   Operation 155 'ddiv' 'tmp_6' <Predicate = (!tmp_1)> <Delay = 8.62> <Core = "DDiv">   --->   Core 111 'DDiv' <Latency = 30> <II = 1> <Delay = 8.62> <FuncUnit> <Opcode : 'ddiv' 'drem'> <InPorts = 2> <OutPorts = 1>

State 27 <SV = 26> <Delay = 8.62>
ST_27 : Operation 156 [16/31] (8.62ns)   --->   "%tmp_6 = fdiv double %tmp_5, 2.550000e+02" [float_converter/solution1/src/float_converter.cpp:63]   --->   Operation 156 'ddiv' 'tmp_6' <Predicate = (!tmp_1)> <Delay = 8.62> <Core = "DDiv">   --->   Core 111 'DDiv' <Latency = 30> <II = 1> <Delay = 8.62> <FuncUnit> <Opcode : 'ddiv' 'drem'> <InPorts = 2> <OutPorts = 1>

State 28 <SV = 27> <Delay = 8.62>
ST_28 : Operation 157 [15/31] (8.62ns)   --->   "%tmp_6 = fdiv double %tmp_5, 2.550000e+02" [float_converter/solution1/src/float_converter.cpp:63]   --->   Operation 157 'ddiv' 'tmp_6' <Predicate = (!tmp_1)> <Delay = 8.62> <Core = "DDiv">   --->   Core 111 'DDiv' <Latency = 30> <II = 1> <Delay = 8.62> <FuncUnit> <Opcode : 'ddiv' 'drem'> <InPorts = 2> <OutPorts = 1>

State 29 <SV = 28> <Delay = 8.62>
ST_29 : Operation 158 [14/31] (8.62ns)   --->   "%tmp_6 = fdiv double %tmp_5, 2.550000e+02" [float_converter/solution1/src/float_converter.cpp:63]   --->   Operation 158 'ddiv' 'tmp_6' <Predicate = (!tmp_1)> <Delay = 8.62> <Core = "DDiv">   --->   Core 111 'DDiv' <Latency = 30> <II = 1> <Delay = 8.62> <FuncUnit> <Opcode : 'ddiv' 'drem'> <InPorts = 2> <OutPorts = 1>

State 30 <SV = 29> <Delay = 8.62>
ST_30 : Operation 159 [13/31] (8.62ns)   --->   "%tmp_6 = fdiv double %tmp_5, 2.550000e+02" [float_converter/solution1/src/float_converter.cpp:63]   --->   Operation 159 'ddiv' 'tmp_6' <Predicate = (!tmp_1)> <Delay = 8.62> <Core = "DDiv">   --->   Core 111 'DDiv' <Latency = 30> <II = 1> <Delay = 8.62> <FuncUnit> <Opcode : 'ddiv' 'drem'> <InPorts = 2> <OutPorts = 1>

State 31 <SV = 30> <Delay = 8.62>
ST_31 : Operation 160 [12/31] (8.62ns)   --->   "%tmp_6 = fdiv double %tmp_5, 2.550000e+02" [float_converter/solution1/src/float_converter.cpp:63]   --->   Operation 160 'ddiv' 'tmp_6' <Predicate = (!tmp_1)> <Delay = 8.62> <Core = "DDiv">   --->   Core 111 'DDiv' <Latency = 30> <II = 1> <Delay = 8.62> <FuncUnit> <Opcode : 'ddiv' 'drem'> <InPorts = 2> <OutPorts = 1>

State 32 <SV = 31> <Delay = 8.62>
ST_32 : Operation 161 [11/31] (8.62ns)   --->   "%tmp_6 = fdiv double %tmp_5, 2.550000e+02" [float_converter/solution1/src/float_converter.cpp:63]   --->   Operation 161 'ddiv' 'tmp_6' <Predicate = (!tmp_1)> <Delay = 8.62> <Core = "DDiv">   --->   Core 111 'DDiv' <Latency = 30> <II = 1> <Delay = 8.62> <FuncUnit> <Opcode : 'ddiv' 'drem'> <InPorts = 2> <OutPorts = 1>

State 33 <SV = 32> <Delay = 8.62>
ST_33 : Operation 162 [10/31] (8.62ns)   --->   "%tmp_6 = fdiv double %tmp_5, 2.550000e+02" [float_converter/solution1/src/float_converter.cpp:63]   --->   Operation 162 'ddiv' 'tmp_6' <Predicate = (!tmp_1)> <Delay = 8.62> <Core = "DDiv">   --->   Core 111 'DDiv' <Latency = 30> <II = 1> <Delay = 8.62> <FuncUnit> <Opcode : 'ddiv' 'drem'> <InPorts = 2> <OutPorts = 1>

State 34 <SV = 33> <Delay = 8.62>
ST_34 : Operation 163 [9/31] (8.62ns)   --->   "%tmp_6 = fdiv double %tmp_5, 2.550000e+02" [float_converter/solution1/src/float_converter.cpp:63]   --->   Operation 163 'ddiv' 'tmp_6' <Predicate = (!tmp_1)> <Delay = 8.62> <Core = "DDiv">   --->   Core 111 'DDiv' <Latency = 30> <II = 1> <Delay = 8.62> <FuncUnit> <Opcode : 'ddiv' 'drem'> <InPorts = 2> <OutPorts = 1>

State 35 <SV = 34> <Delay = 8.62>
ST_35 : Operation 164 [8/31] (8.62ns)   --->   "%tmp_6 = fdiv double %tmp_5, 2.550000e+02" [float_converter/solution1/src/float_converter.cpp:63]   --->   Operation 164 'ddiv' 'tmp_6' <Predicate = (!tmp_1)> <Delay = 8.62> <Core = "DDiv">   --->   Core 111 'DDiv' <Latency = 30> <II = 1> <Delay = 8.62> <FuncUnit> <Opcode : 'ddiv' 'drem'> <InPorts = 2> <OutPorts = 1>

State 36 <SV = 35> <Delay = 8.62>
ST_36 : Operation 165 [7/31] (8.62ns)   --->   "%tmp_6 = fdiv double %tmp_5, 2.550000e+02" [float_converter/solution1/src/float_converter.cpp:63]   --->   Operation 165 'ddiv' 'tmp_6' <Predicate = (!tmp_1)> <Delay = 8.62> <Core = "DDiv">   --->   Core 111 'DDiv' <Latency = 30> <II = 1> <Delay = 8.62> <FuncUnit> <Opcode : 'ddiv' 'drem'> <InPorts = 2> <OutPorts = 1>

State 37 <SV = 36> <Delay = 8.62>
ST_37 : Operation 166 [6/31] (8.62ns)   --->   "%tmp_6 = fdiv double %tmp_5, 2.550000e+02" [float_converter/solution1/src/float_converter.cpp:63]   --->   Operation 166 'ddiv' 'tmp_6' <Predicate = (!tmp_1)> <Delay = 8.62> <Core = "DDiv">   --->   Core 111 'DDiv' <Latency = 30> <II = 1> <Delay = 8.62> <FuncUnit> <Opcode : 'ddiv' 'drem'> <InPorts = 2> <OutPorts = 1>

State 38 <SV = 37> <Delay = 8.62>
ST_38 : Operation 167 [5/31] (8.62ns)   --->   "%tmp_6 = fdiv double %tmp_5, 2.550000e+02" [float_converter/solution1/src/float_converter.cpp:63]   --->   Operation 167 'ddiv' 'tmp_6' <Predicate = (!tmp_1)> <Delay = 8.62> <Core = "DDiv">   --->   Core 111 'DDiv' <Latency = 30> <II = 1> <Delay = 8.62> <FuncUnit> <Opcode : 'ddiv' 'drem'> <InPorts = 2> <OutPorts = 1>

State 39 <SV = 38> <Delay = 8.62>
ST_39 : Operation 168 [4/31] (8.62ns)   --->   "%tmp_6 = fdiv double %tmp_5, 2.550000e+02" [float_converter/solution1/src/float_converter.cpp:63]   --->   Operation 168 'ddiv' 'tmp_6' <Predicate = (!tmp_1)> <Delay = 8.62> <Core = "DDiv">   --->   Core 111 'DDiv' <Latency = 30> <II = 1> <Delay = 8.62> <FuncUnit> <Opcode : 'ddiv' 'drem'> <InPorts = 2> <OutPorts = 1>

State 40 <SV = 39> <Delay = 8.62>
ST_40 : Operation 169 [3/31] (8.62ns)   --->   "%tmp_6 = fdiv double %tmp_5, 2.550000e+02" [float_converter/solution1/src/float_converter.cpp:63]   --->   Operation 169 'ddiv' 'tmp_6' <Predicate = (!tmp_1)> <Delay = 8.62> <Core = "DDiv">   --->   Core 111 'DDiv' <Latency = 30> <II = 1> <Delay = 8.62> <FuncUnit> <Opcode : 'ddiv' 'drem'> <InPorts = 2> <OutPorts = 1>

State 41 <SV = 40> <Delay = 8.62>
ST_41 : Operation 170 [2/31] (8.62ns)   --->   "%tmp_6 = fdiv double %tmp_5, 2.550000e+02" [float_converter/solution1/src/float_converter.cpp:63]   --->   Operation 170 'ddiv' 'tmp_6' <Predicate = (!tmp_1)> <Delay = 8.62> <Core = "DDiv">   --->   Core 111 'DDiv' <Latency = 30> <II = 1> <Delay = 8.62> <FuncUnit> <Opcode : 'ddiv' 'drem'> <InPorts = 2> <OutPorts = 1>

State 42 <SV = 41> <Delay = 8.62>
ST_42 : Operation 171 [1/31] (8.62ns)   --->   "%tmp_6 = fdiv double %tmp_5, 2.550000e+02" [float_converter/solution1/src/float_converter.cpp:63]   --->   Operation 171 'ddiv' 'tmp_6' <Predicate = (!tmp_1)> <Delay = 8.62> <Core = "DDiv">   --->   Core 111 'DDiv' <Latency = 30> <II = 1> <Delay = 8.62> <FuncUnit> <Opcode : 'ddiv' 'drem'> <InPorts = 2> <OutPorts = 1>

State 43 <SV = 42> <Delay = 6.50>
ST_43 : Operation 172 [1/1] (6.50ns)   --->   "%tmp_7 = fptrunc double %tmp_6 to float" [float_converter/solution1/src/float_converter.cpp:63]   --->   Operation 172 'fptrunc' 'tmp_7' <Predicate = (!tmp_1)> <Delay = 6.50> <Core = "Double2Float">   --->   Core 117 'Double2Float' <Latency = 0> <II = 1> <Delay = 6.50> <FuncUnit> <Opcode : 'fptrunc'> <InPorts = 1> <OutPorts = 1>
ST_43 : Operation 173 [1/1] (0.00ns)   --->   "%tmp_data_V = bitcast float %tmp_7 to i32" [float_converter/solution1/src/float_converter.cpp:63]   --->   Operation 173 'bitcast' 'tmp_data_V' <Predicate = (!tmp_1)> <Delay = 0.00>
ST_43 : Operation 174 [1/1] (0.99ns)   --->   "%fdata_keep_V = select i1 %udata_keep_V_2, i4 -1, i4 0" [float_converter/solution1/src/float_converter.cpp:68]   --->   Operation 174 'select' 'fdata_keep_V' <Predicate = (!tmp_1)> <Delay = 0.99> <Core = "Sel">   --->   Core 26 'Sel' <Latency = 0> <II = 1> <Delay = 0.99> <FuncUnit> <Opcode : 'select'> <InPorts = 3> <OutPorts = 1>
ST_43 : Operation 175 [1/1] (0.99ns)   --->   "%fdata_strb_V = select i1 %udata_strb_V_2, i4 -1, i4 0" [float_converter/solution1/src/float_converter.cpp:70]   --->   Operation 175 'select' 'fdata_strb_V' <Predicate = (!tmp_1)> <Delay = 0.99> <Core = "Sel">   --->   Core 26 'Sel' <Latency = 0> <II = 1> <Delay = 0.99> <FuncUnit> <Opcode : 'select'> <InPorts = 3> <OutPorts = 1>
ST_43 : Operation 176 [2/2] (0.00ns)   --->   "call void @_ssdm_op_Write.axis.volatile.i32P.i4P.i4P.i1P.i1P.i1P.i1P(i32* %stream_out_V_data_V, i4* %stream_out_V_keep_V, i4* %stream_out_V_strb_V, i1* %stream_out_V_user_V, i1* %stream_out_V_last_V, i1* %stream_out_V_id_V, i1* %stream_out_V_dest_V, i32 %tmp_data_V, i4 %fdata_keep_V, i4 %fdata_strb_V, i1 %fdata_user_V, i1 %fdata_last_V, i1 %fdata_id_V, i1 %fdata_dest_V)" [float_converter/solution1/src/float_converter.cpp:73]   --->   Operation 176 'write' <Predicate = (!tmp_1)> <Delay = 0.00> <Core = "AXI4Stream">   --->   Core 5 'AXI4Stream' <Latency = 0> <II = 1> <Delay = 1.00> <Adapter> <Opcode : >

State 44 <SV = 43> <Delay = 0.00>
ST_44 : Operation 177 [1/1] (0.00ns)   --->   "call void (...)* @_ssdm_op_SpecLoopName([11 x i8]* @p_str6) nounwind" [float_converter/solution1/src/float_converter.cpp:51]   --->   Operation 177 'specloopname' <Predicate = (!tmp_1)> <Delay = 0.00>
ST_44 : Operation 178 [1/1] (0.00ns)   --->   "%tmp_3 = call i32 (...)* @_ssdm_op_SpecRegionBegin([11 x i8]* @p_str6)" [float_converter/solution1/src/float_converter.cpp:51]   --->   Operation 178 'specregionbegin' 'tmp_3' <Predicate = (!tmp_1)> <Delay = 0.00>
ST_44 : Operation 179 [1/1] (0.00ns)   --->   "call void (...)* @_ssdm_op_SpecPipeline(i32 1, i32 1, i32 1, i32 0, [1 x i8]* @p_str3) nounwind" [float_converter/solution1/src/float_converter.cpp:53]   --->   Operation 179 'specpipeline' <Predicate = (!tmp_1)> <Delay = 0.00>
ST_44 : Operation 180 [1/2] (0.00ns)   --->   "call void @_ssdm_op_Write.axis.volatile.i32P.i4P.i4P.i1P.i1P.i1P.i1P(i32* %stream_out_V_data_V, i4* %stream_out_V_keep_V, i4* %stream_out_V_strb_V, i1* %stream_out_V_user_V, i1* %stream_out_V_last_V, i1* %stream_out_V_id_V, i1* %stream_out_V_dest_V, i32 %tmp_data_V, i4 %fdata_keep_V, i4 %fdata_strb_V, i1 %fdata_user_V, i1 %fdata_last_V, i1 %fdata_id_V, i1 %fdata_dest_V)" [float_converter/solution1/src/float_converter.cpp:73]   --->   Operation 180 'write' <Predicate = (!tmp_1)> <Delay = 0.00> <Core = "AXI4Stream">   --->   Core 5 'AXI4Stream' <Latency = 0> <II = 1> <Delay = 1.00> <Adapter> <Opcode : >
ST_44 : Operation 181 [1/1] (0.00ns)   --->   "%empty_4 = call i32 (...)* @_ssdm_op_SpecRegionEnd([11 x i8]* @p_str6, i32 %tmp_3)" [float_converter/solution1/src/float_converter.cpp:74]   --->   Operation 181 'specregionend' 'empty_4' <Predicate = (!tmp_1)> <Delay = 0.00>
ST_44 : Operation 182 [1/1] (0.00ns)   --->   "br label %2" [float_converter/solution1/src/float_converter.cpp:51]   --->   Operation 182 'br' <Predicate = (!tmp_1)> <Delay = 0.00>

State 45 <SV = 6> <Delay = 1.76>
ST_45 : Operation 183 [1/1] (1.76ns)   --->   "br label %.preheader" [float_converter/solution1/src/float_converter.cpp:76]   --->   Operation 183 'br' <Predicate = true> <Delay = 1.76>

State 46 <SV = 7> <Delay = 0.97>
ST_46 : Operation 184 [1/1] (0.00ns)   --->   "%eol_2 = phi i1 [ %tmp_last_V, %6 ], [ %eol, %.preheader.preheader ]"   --->   Operation 184 'phi' 'eol_2' <Predicate = true> <Delay = 0.00>
ST_46 : Operation 185 [2/2] (0.00ns)   --->   "%empty_5 = call { i8, i1, i1, i1, i1, i1, i1 } @_ssdm_op_Read.axis.volatile.i8P.i1P.i1P.i1P.i1P.i1P.i1P(i8* %stream_in_V_data_V, i1* %stream_in_V_keep_V, i1* %stream_in_V_strb_V, i1* %stream_in_V_user_V, i1* %stream_in_V_last_V, i1* %stream_in_V_id_V, i1* %stream_in_V_dest_V)" [float_converter/solution1/src/float_converter.cpp:80]   --->   Operation 185 'read' 'empty_5' <Predicate = (!eol_2)> <Delay = 0.00> <Core = "AXI4Stream">   --->   Core 5 'AXI4Stream' <Latency = 0> <II = 1> <Delay = 1.00> <Adapter> <Opcode : >

State 47 <SV = 8> <Delay = 0.00>
ST_47 : Operation 186 [1/1] (0.00ns)   --->   "%udata_dest_V_3 = phi i1 [ %tmp_dest_V, %6 ], [ %udata_dest_V_1, %.preheader.preheader ]"   --->   Operation 186 'phi' 'udata_dest_V_3' <Predicate = true> <Delay = 0.00>
ST_47 : Operation 187 [1/1] (0.00ns)   --->   "%udata_id_V_3 = phi i1 [ %tmp_id_V, %6 ], [ %udata_id_V_1, %.preheader.preheader ]"   --->   Operation 187 'phi' 'udata_id_V_3' <Predicate = true> <Delay = 0.00>
ST_47 : Operation 188 [1/1] (0.00ns)   --->   "%udata_last_V_3 = phi i1 [ %tmp_last_V, %6 ], [ %eol_1, %.preheader.preheader ]"   --->   Operation 188 'phi' 'udata_last_V_3' <Predicate = true> <Delay = 0.00>
ST_47 : Operation 189 [1/1] (0.00ns)   --->   "%udata_strb_V_3 = phi i1 [ %tmp_strb_V, %6 ], [ %udata_strb_V_1, %.preheader.preheader ]"   --->   Operation 189 'phi' 'udata_strb_V_3' <Predicate = true> <Delay = 0.00>
ST_47 : Operation 190 [1/1] (0.00ns)   --->   "%udata_keep_V_3 = phi i1 [ %tmp_keep_V, %6 ], [ %udata_keep_V_1, %.preheader.preheader ]"   --->   Operation 190 'phi' 'udata_keep_V_3' <Predicate = true> <Delay = 0.00>
ST_47 : Operation 191 [1/1] (0.00ns)   --->   "%udata_data_V_3 = phi i8 [ %tmp_data_V_3, %6 ], [ %udata_data_V_1, %.preheader.preheader ]"   --->   Operation 191 'phi' 'udata_data_V_3' <Predicate = true> <Delay = 0.00>
ST_47 : Operation 192 [1/1] (0.00ns)   --->   "%udata_3_3 = phi i1 [ %tmp_user_V, %6 ], [ %udata_3_1, %.preheader.preheader ]"   --->   Operation 192 'phi' 'udata_3_3' <Predicate = true> <Delay = 0.00>
ST_47 : Operation 193 [1/1] (0.00ns)   --->   "br i1 %eol_2, label %7, label %6" [float_converter/solution1/src/float_converter.cpp:76]   --->   Operation 193 'br' <Predicate = true> <Delay = 0.00>
ST_47 : Operation 194 [1/1] (0.00ns)   --->   "call void (...)* @_ssdm_op_SpecLoopName([18 x i8]* @p_str7) nounwind" [float_converter/solution1/src/float_converter.cpp:76]   --->   Operation 194 'specloopname' <Predicate = (!eol_2)> <Delay = 0.00>
ST_47 : Operation 195 [1/1] (0.00ns)   --->   "%tmp_4 = call i32 (...)* @_ssdm_op_SpecRegionBegin([18 x i8]* @p_str7)" [float_converter/solution1/src/float_converter.cpp:76]   --->   Operation 195 'specregionbegin' 'tmp_4' <Predicate = (!eol_2)> <Delay = 0.00>
ST_47 : Operation 196 [1/1] (0.00ns)   --->   "call void (...)* @_ssdm_op_SpecPipeline(i32 1, i32 1, i32 1, i32 0, [1 x i8]* @p_str3) nounwind" [float_converter/solution1/src/float_converter.cpp:77]   --->   Operation 196 'specpipeline' <Predicate = (!eol_2)> <Delay = 0.00>
ST_47 : Operation 197 [1/1] (0.00ns)   --->   "call void (...)* @_ssdm_op_SpecLoopTripCount(i32 0, i32 0, i32 0, [1 x i8]* @p_str3) nounwind" [float_converter/solution1/src/float_converter.cpp:78]   --->   Operation 197 'speclooptripcount' <Predicate = (!eol_2)> <Delay = 0.00>
ST_47 : Operation 198 [1/2] (0.00ns)   --->   "%empty_5 = call { i8, i1, i1, i1, i1, i1, i1 } @_ssdm_op_Read.axis.volatile.i8P.i1P.i1P.i1P.i1P.i1P.i1P(i8* %stream_in_V_data_V, i1* %stream_in_V_keep_V, i1* %stream_in_V_strb_V, i1* %stream_in_V_user_V, i1* %stream_in_V_last_V, i1* %stream_in_V_id_V, i1* %stream_in_V_dest_V)" [float_converter/solution1/src/float_converter.cpp:80]   --->   Operation 198 'read' 'empty_5' <Predicate = (!eol_2)> <Delay = 0.00> <Core = "AXI4Stream">   --->   Core 5 'AXI4Stream' <Latency = 0> <II = 1> <Delay = 1.00> <Adapter> <Opcode : >
ST_47 : Operation 199 [1/1] (0.00ns)   --->   "%tmp_data_V_3 = extractvalue { i8, i1, i1, i1, i1, i1, i1 } %empty_5, 0" [float_converter/solution1/src/float_converter.cpp:80]   --->   Operation 199 'extractvalue' 'tmp_data_V_3' <Predicate = (!eol_2)> <Delay = 0.00>
ST_47 : Operation 200 [1/1] (0.00ns)   --->   "%tmp_keep_V = extractvalue { i8, i1, i1, i1, i1, i1, i1 } %empty_5, 1" [float_converter/solution1/src/float_converter.cpp:80]   --->   Operation 200 'extractvalue' 'tmp_keep_V' <Predicate = (!eol_2)> <Delay = 0.00>
ST_47 : Operation 201 [1/1] (0.00ns)   --->   "%tmp_strb_V = extractvalue { i8, i1, i1, i1, i1, i1, i1 } %empty_5, 2" [float_converter/solution1/src/float_converter.cpp:80]   --->   Operation 201 'extractvalue' 'tmp_strb_V' <Predicate = (!eol_2)> <Delay = 0.00>
ST_47 : Operation 202 [1/1] (0.00ns)   --->   "%tmp_user_V = extractvalue { i8, i1, i1, i1, i1, i1, i1 } %empty_5, 3" [float_converter/solution1/src/float_converter.cpp:80]   --->   Operation 202 'extractvalue' 'tmp_user_V' <Predicate = (!eol_2)> <Delay = 0.00>
ST_47 : Operation 203 [1/1] (0.00ns)   --->   "%tmp_last_V = extractvalue { i8, i1, i1, i1, i1, i1, i1 } %empty_5, 4" [float_converter/solution1/src/float_converter.cpp:80]   --->   Operation 203 'extractvalue' 'tmp_last_V' <Predicate = (!eol_2)> <Delay = 0.00>
ST_47 : Operation 204 [1/1] (0.00ns)   --->   "%tmp_id_V = extractvalue { i8, i1, i1, i1, i1, i1, i1 } %empty_5, 5" [float_converter/solution1/src/float_converter.cpp:80]   --->   Operation 204 'extractvalue' 'tmp_id_V' <Predicate = (!eol_2)> <Delay = 0.00>
ST_47 : Operation 205 [1/1] (0.00ns)   --->   "%tmp_dest_V = extractvalue { i8, i1, i1, i1, i1, i1, i1 } %empty_5, 6" [float_converter/solution1/src/float_converter.cpp:80]   --->   Operation 205 'extractvalue' 'tmp_dest_V' <Predicate = (!eol_2)> <Delay = 0.00>
ST_47 : Operation 206 [1/1] (0.00ns)   --->   "%empty_6 = call i32 (...)* @_ssdm_op_SpecRegionEnd([18 x i8]* @p_str7, i32 %tmp_4)" [float_converter/solution1/src/float_converter.cpp:82]   --->   Operation 206 'specregionend' 'empty_6' <Predicate = (!eol_2)> <Delay = 0.00>
ST_47 : Operation 207 [1/1] (0.00ns)   --->   "br label %.preheader" [float_converter/solution1/src/float_converter.cpp:82]   --->   Operation 207 'br' <Predicate = (!eol_2)> <Delay = 0.00>

State 48 <SV = 9> <Delay = 0.00>
ST_48 : Operation 208 [1/1] (0.00ns)   --->   "%empty_7 = call i32 (...)* @_ssdm_op_SpecRegionEnd([12 x i8]* @p_str5, i32 %tmp_2)" [float_converter/solution1/src/float_converter.cpp:83]   --->   Operation 208 'specregionend' 'empty_7' <Predicate = true> <Delay = 0.00>
ST_48 : Operation 209 [1/1] (0.00ns)   --->   "br label %.preheader118" [float_converter/solution1/src/float_converter.cpp:48]   --->   Operation 209 'br' <Predicate = true> <Delay = 0.00>


============================================================
+ Verbose Summary: Timing violations
============================================================
Target clock period: 10ns, clock uncertainty: 1.25ns.

 <State 1>: 0ns
The critical path consists of the following:

 <State 2>: 0ns
The critical path consists of the following:

 <State 3>: 1.77ns
The critical path consists of the following:
	'alloca' operation ('sof_1') [49]  (0 ns)
	'store' operation of constant 1 on local variable 'sof_1' [50]  (1.77 ns)

 <State 4>: 2.34ns
The critical path consists of the following:
	'icmp' operation ('exitcond', float_converter/solution1/src/float_converter.cpp:48) [61]  (1.36 ns)
	blocking operation 0.978 ns on control path)

 <State 5>: 2.34ns
The critical path consists of the following:
	'icmp' operation ('tmp_1', float_converter/solution1/src/float_converter.cpp:51) [79]  (1.36 ns)
	blocking operation 0.978 ns on control path)

 <State 6>: 8.05ns
The critical path consists of the following:
	'phi' operation ('fdata.dest.V') with incoming values : ('tmp.dest.V', float_converter/solution1/src/float_converter.cpp:45) ('tmp.dest.V', float_converter/solution1/src/float_converter.cpp:59) ('tmp.dest.V', float_converter/solution1/src/float_converter.cpp:80) [70]  (0 ns)
	multiplexor before 'phi' operation ('udata.data.V') with incoming values : ('tmp.data.V', float_converter/solution1/src/float_converter.cpp:45) ('tmp.data.V', float_converter/solution1/src/float_converter.cpp:59) ('tmp.data.V', float_converter/solution1/src/float_converter.cpp:80) [106]  (1.77 ns)
	'phi' operation ('udata.data.V') with incoming values : ('tmp.data.V', float_converter/solution1/src/float_converter.cpp:45) ('tmp.data.V', float_converter/solution1/src/float_converter.cpp:59) ('tmp.data.V', float_converter/solution1/src/float_converter.cpp:80) [106]  (0 ns)
	'uitodp' operation ('tmp_5', float_converter/solution1/src/float_converter.cpp:63) [109]  (6.28 ns)

 <State 7>: 6.28ns
The critical path consists of the following:
	'uitodp' operation ('tmp_5', float_converter/solution1/src/float_converter.cpp:63) [109]  (6.28 ns)

 <State 8>: 6.28ns
The critical path consists of the following:
	'uitodp' operation ('tmp_5', float_converter/solution1/src/float_converter.cpp:63) [109]  (6.28 ns)

 <State 9>: 6.28ns
The critical path consists of the following:
	'uitodp' operation ('tmp_5', float_converter/solution1/src/float_converter.cpp:63) [109]  (6.28 ns)

 <State 10>: 6.28ns
The critical path consists of the following:
	'uitodp' operation ('tmp_5', float_converter/solution1/src/float_converter.cpp:63) [109]  (6.28 ns)

 <State 11>: 6.28ns
The critical path consists of the following:
	'uitodp' operation ('tmp_5', float_converter/solution1/src/float_converter.cpp:63) [109]  (6.28 ns)

 <State 12>: 8.62ns
The critical path consists of the following:
	'ddiv' operation ('tmp_6', float_converter/solution1/src/float_converter.cpp:63) [110]  (8.62 ns)

 <State 13>: 8.62ns
The critical path consists of the following:
	'ddiv' operation ('tmp_6', float_converter/solution1/src/float_converter.cpp:63) [110]  (8.62 ns)

 <State 14>: 8.62ns
The critical path consists of the following:
	'ddiv' operation ('tmp_6', float_converter/solution1/src/float_converter.cpp:63) [110]  (8.62 ns)

 <State 15>: 8.62ns
The critical path consists of the following:
	'ddiv' operation ('tmp_6', float_converter/solution1/src/float_converter.cpp:63) [110]  (8.62 ns)

 <State 16>: 8.62ns
The critical path consists of the following:
	'ddiv' operation ('tmp_6', float_converter/solution1/src/float_converter.cpp:63) [110]  (8.62 ns)

 <State 17>: 8.62ns
The critical path consists of the following:
	'ddiv' operation ('tmp_6', float_converter/solution1/src/float_converter.cpp:63) [110]  (8.62 ns)

 <State 18>: 8.62ns
The critical path consists of the following:
	'ddiv' operation ('tmp_6', float_converter/solution1/src/float_converter.cpp:63) [110]  (8.62 ns)

 <State 19>: 8.62ns
The critical path consists of the following:
	'ddiv' operation ('tmp_6', float_converter/solution1/src/float_converter.cpp:63) [110]  (8.62 ns)

 <State 20>: 8.62ns
The critical path consists of the following:
	'ddiv' operation ('tmp_6', float_converter/solution1/src/float_converter.cpp:63) [110]  (8.62 ns)

 <State 21>: 8.62ns
The critical path consists of the following:
	'ddiv' operation ('tmp_6', float_converter/solution1/src/float_converter.cpp:63) [110]  (8.62 ns)

 <State 22>: 8.62ns
The critical path consists of the following:
	'ddiv' operation ('tmp_6', float_converter/solution1/src/float_converter.cpp:63) [110]  (8.62 ns)

 <State 23>: 8.62ns
The critical path consists of the following:
	'ddiv' operation ('tmp_6', float_converter/solution1/src/float_converter.cpp:63) [110]  (8.62 ns)

 <State 24>: 8.62ns
The critical path consists of the following:
	'ddiv' operation ('tmp_6', float_converter/solution1/src/float_converter.cpp:63) [110]  (8.62 ns)

 <State 25>: 8.62ns
The critical path consists of the following:
	'ddiv' operation ('tmp_6', float_converter/solution1/src/float_converter.cpp:63) [110]  (8.62 ns)

 <State 26>: 8.62ns
The critical path consists of the following:
	'ddiv' operation ('tmp_6', float_converter/solution1/src/float_converter.cpp:63) [110]  (8.62 ns)

 <State 27>: 8.62ns
The critical path consists of the following:
	'ddiv' operation ('tmp_6', float_converter/solution1/src/float_converter.cpp:63) [110]  (8.62 ns)

 <State 28>: 8.62ns
The critical path consists of the following:
	'ddiv' operation ('tmp_6', float_converter/solution1/src/float_converter.cpp:63) [110]  (8.62 ns)

 <State 29>: 8.62ns
The critical path consists of the following:
	'ddiv' operation ('tmp_6', float_converter/solution1/src/float_converter.cpp:63) [110]  (8.62 ns)

 <State 30>: 8.62ns
The critical path consists of the following:
	'ddiv' operation ('tmp_6', float_converter/solution1/src/float_converter.cpp:63) [110]  (8.62 ns)

 <State 31>: 8.62ns
The critical path consists of the following:
	'ddiv' operation ('tmp_6', float_converter/solution1/src/float_converter.cpp:63) [110]  (8.62 ns)

 <State 32>: 8.62ns
The critical path consists of the following:
	'ddiv' operation ('tmp_6', float_converter/solution1/src/float_converter.cpp:63) [110]  (8.62 ns)

 <State 33>: 8.62ns
The critical path consists of the following:
	'ddiv' operation ('tmp_6', float_converter/solution1/src/float_converter.cpp:63) [110]  (8.62 ns)

 <State 34>: 8.62ns
The critical path consists of the following:
	'ddiv' operation ('tmp_6', float_converter/solution1/src/float_converter.cpp:63) [110]  (8.62 ns)

 <State 35>: 8.62ns
The critical path consists of the following:
	'ddiv' operation ('tmp_6', float_converter/solution1/src/float_converter.cpp:63) [110]  (8.62 ns)

 <State 36>: 8.62ns
The critical path consists of the following:
	'ddiv' operation ('tmp_6', float_converter/solution1/src/float_converter.cpp:63) [110]  (8.62 ns)

 <State 37>: 8.62ns
The critical path consists of the following:
	'ddiv' operation ('tmp_6', float_converter/solution1/src/float_converter.cpp:63) [110]  (8.62 ns)

 <State 38>: 8.62ns
The critical path consists of the following:
	'ddiv' operation ('tmp_6', float_converter/solution1/src/float_converter.cpp:63) [110]  (8.62 ns)

 <State 39>: 8.62ns
The critical path consists of the following:
	'ddiv' operation ('tmp_6', float_converter/solution1/src/float_converter.cpp:63) [110]  (8.62 ns)

 <State 40>: 8.62ns
The critical path consists of the following:
	'ddiv' operation ('tmp_6', float_converter/solution1/src/float_converter.cpp:63) [110]  (8.62 ns)

 <State 41>: 8.62ns
The critical path consists of the following:
	'ddiv' operation ('tmp_6', float_converter/solution1/src/float_converter.cpp:63) [110]  (8.62 ns)

 <State 42>: 8.62ns
The critical path consists of the following:
	'ddiv' operation ('tmp_6', float_converter/solution1/src/float_converter.cpp:63) [110]  (8.62 ns)

 <State 43>: 6.5ns
The critical path consists of the following:
	'fptrunc' operation ('tmp_7', float_converter/solution1/src/float_converter.cpp:63) [111]  (6.5 ns)

 <State 44>: 0ns
The critical path consists of the following:

 <State 45>: 1.77ns
The critical path consists of the following:
	multiplexor before 'phi' operation ('udata.dest.V') with incoming values : ('tmp.dest.V', float_converter/solution1/src/float_converter.cpp:45) ('tmp.dest.V', float_converter/solution1/src/float_converter.cpp:59) ('tmp.dest.V', float_converter/solution1/src/float_converter.cpp:80) [122]  (1.77 ns)

 <State 46>: 0.978ns
The critical path consists of the following:
	'phi' operation ('udata.last.V') with incoming values : ('tmp.last.V', float_converter/solution1/src/float_converter.cpp:45) ('tmp.last.V', float_converter/solution1/src/float_converter.cpp:59) ('tmp.last.V', float_converter/solution1/src/float_converter.cpp:80) [129]  (0 ns)
	blocking operation 0.978 ns on control path)

 <State 47>: 0ns
The critical path consists of the following:

 <State 48>: 0ns
The critical path consists of the following:


============================================================
+ Verbose Summary: Binding
============================================================
N/A
* FSMD analyzer results:
  - Output states:
 - Input state : 
  - Chain level:
	State 1
	State 2
	State 3
	State 4
	State 5
	State 6
	State 7
	State 8
	State 9
	State 10
	State 11
	State 12
	State 13
	State 14
	State 15
	State 16
	State 17
	State 18
	State 19
	State 20
	State 21
	State 22
	State 23
	State 24
	State 25
	State 26
	State 27
	State 28
	State 29
	State 30
	State 31
	State 32
	State 33
	State 34
	State 35
	State 36
	State 37
	State 38
	State 39
	State 40
	State 41
	State 42
	State 43
	State 44
	State 45
	State 46
	State 47
	State 48


============================================================
+ Verbose Summary: Datapath Resource usage 
============================================================
N/A
